{
  "realm": "sshop-dev",
  "displayName": "SShop Dev",
  "displayNameHtml": "SShop <b>Dev</b>",
  "enabled": true,
  "sslRequired": "external",
  "registrationAllowed": true,
  "registrationEmailAsUsername": true,
  "rememberMe": true,
  "verifyEmail": true,
  "loginWithEmailAllowed": true,
  "duplicateEmailsAllowed": false,
  "resetPasswordAllowed": true,
  "editUsernameAllowed": true,
  "clients": [
    {
      "clientId": "auth-client",
      "enabled": true,
      "clientAuthenticatorType": "client-secret",
      "secret": "aFctccoGM1T8Yl4eND1zOVU8fo5kNwsA",
      "directAccessGrantsEnabled": true,
      "serviceAccountsEnabled": true,
      "fullScopeAllowed": true
    },
    {
      "clientId": "shop-admin",
      "enabled": true,
      "directAccessGrantsEnabled": true
    },
    {
      "clientId": "shop-web",
      "enabled": true,
      "directAccessGrantsEnabled": true
    },
    {
      "clientId": "shop-api",
      "name": "SShop API",
      "enabled": true,
      "clientAuthenticatorType": "client-secret",
      "secret": "x6IaeQHVgq67W6ZE1t9QiGNqAMk7xJy4",
      "bearerOnly": true,
      "consentRequired": false,
      "standardFlowEnabled": true,
      "directAccessGrantsEnabled": true
    },
    {
      "clientId": "shop-upload-api",
      "name": "SShop Upload API",
      "enabled": true,
      "clientAuthenticatorType": "client-secret",
      "secret": "oPm4kxW1ukmVgq67W6ZE1t9QiGNqAMkXsJkjQd",
      "bearerOnly": true,
      "consentRequired": false,
      "standardFlowEnabled": true,
      "directAccessGrantsEnabled": true
    }
  ],
  "browserSecurityHeaders": {
    "contentSecurityPolicy": "frame-src 'self'; frame-ancestors 'self'; object-src 'none';",
    "xXSSProtection": "1; mode=block",
    "strictTransportSecurity": "max-age=31536000; includeSubDomains"
  },
  "smtpServer": {
    "replyToDisplayName": "SShop Dev",
    "starttls": "",
    "auth": "",
    "port": "1025",
    "host": "host.docker.internal",
    "from": "team@sshop.dev",
    "ssl": ""
  },
  "loginTheme": "keycloak",
  "components": {
    "org.keycloak.storage.UserStorageProvider": [
      {
        "name": "SShop API",
        "providerId": "sshop-accounts-storage-provider",
        "config": {
          "serverClientId": [
            "auth-client"
          ],
          "serverClientSecret": [
            "aFctccoGM1T8Yl4eND1zOVU8fo5kNwsA"
          ],
          "serverUrl": [
            "http://host.docker.internal:9000"
          ],
          "serverKeycloakUrl": [
            "http://localhost:8080"
          ],
          "serverScope": [
            "email"
          ],
          "cachePolicy": [
            "NO_CACHE"
          ],
          "priority": [
            "0"
          ],
          "enabled": [
            "true"
          ]
        }
      }
    ]
  },
  "keycloakVersion": "18.0.2"
}
